[
    [
        {
            "AppID": 2990,
            "Name": "Admissions- Portal",
            "Description": "",
            "Type": "Client Portal",
            "AppClass": "TDClient",
            "ExternalUrl": null,
            "Purpose": null,
            "Active": true,
            "PartialUrl": "AdmissionsPortal"
        },
        {
            "AppID": 2989,
            "Name": "Admissions- Request",
            "Description": "App Owner: Tim Shulba",
            "Type": "Ticketing",
            "AppClass": "TDTickets",
            "ExternalUrl": null,
            "Purpose": "Admissions",
            "Active": true,
            "PartialUrl": null
        },
        {
            "AppID": 3210,
            "Name": "Alumni & Families",
            "Description": "",
            "Type": "Ticketing",
            "AppClass": "TDTickets",
            "ExternalUrl": null,
            "Purpose": "Alumni Relations",
            "Active": true,
            "PartialUrl": null
        },
        {
            "AppID": 2,
            "Name": "Analysis",
            "Description": "Analysis provides the tools to generate reports and analyze the organization's portfolio from any angle. The data is pulled directly from projects, tickets, requests and resources throughout the TDNext solution.",
            "Type": "Standard",
            "AppClass": "TDAnalysis",
            "ExternalUrl": null,
            "Purpose": null,
            "Active": true,
            "PartialUrl": null
        },
        {
            "AppID": 2640,
            "Name": "Business MBA - Portal",
            "Description": "",
            "Type": "Client Portal",
            "AppClass": "TDClient",
            "ExternalUrl": null,
            "Purpose": null,
            "Active": true,
            "PartialUrl": "MBAPortal"
        },
        {
            "AppID": 2639,
            "Name": "Business MBA - Request",
            "Description": "App Owner: Darlene Hahn",
            "Type": "Ticketing",
            "AppClass": "TDTickets",
            "ExternalUrl": null,
            "Purpose": "Other",
            "Active": true,
            "PartialUrl": null
        },
        {
            "AppID": 3228,
            "Name": "Chat",
            "Description": "Instant messaging capability in the TDNext suite.",
            "Type": "Standard",
            "AppClass": "TDChat",
            "ExternalUrl": null,
            "Purpose": null,
            "Active": true,
            "PartialUrl": null
        },
        {
            "AppID": 6,
            "Name": "Community",
            "Description": "The Community application gives users a direct link to the TeamDynamix Community through secure integration in the TDNext application menu. The TeamDynamix Community is home to the TeamDynamix User Groups.",
            "Type": "Standard",
            "AppClass": "TDCommunity",
            "ExternalUrl": null,
            "Purpose": null,
            "Active": true,
            "PartialUrl": null
        },
        {
            "AppID": 988,
            "Name": "Facilities - Assets",
            "Description": "",
            "Type": "Asset/CI",
            "AppClass": "TDAssets",
            "ExternalUrl": null,
            "Purpose": null,
            "Active": true,
            "PartialUrl": null
        },
        {
            "AppID": 2545,
            "Name": "Facilities - Portal",
            "Description": "",
            "Type": "Client Portal",
            "AppClass": "TDClient",
            "ExternalUrl": null,
            "Purpose": null,
            "Active": true,
            "PartialUrl": "FacilitiesPortal"
        },
        {
            "AppID": 987,
            "Name": "Facilities - Work Order",
            "Description": "App Owner: Jon Pedersen",
            "Type": "Ticketing",
            "AppClass": "TDTickets",
            "ExternalUrl": null,
            "Purpose": "Facilities",
            "Active": true,
            "PartialUrl": null
        },
        {
            "AppID": 8,
            "Name": "File Cabinet",
            "Description": "The File Cabinet application allows users to archive files from projects or workspaces and view files after those projects have been closed.",
            "Type": "Standard",
            "AppClass": "TDFileCabinet",
            "ExternalUrl": null,
            "Purpose": null,
            "Active": true,
            "PartialUrl": null
        },
        {
            "AppID": 9,
            "Name": "Finance",
            "Description": "The Finance application allows users to run reports and generate invoices based on billable time and expenses entered in the system.",
            "Type": "Standard",
            "AppClass": "TDFinance",
            "ExternalUrl": null,
            "Purpose": null,
            "Active": true,
            "PartialUrl": null
        },
        {
            "AppID": 2786,
            "Name": "Finance - Portal",
            "Description": "",
            "Type": "Client Portal",
            "AppClass": "TDClient",
            "ExternalUrl": null,
            "Purpose": null,
            "Active": true,
            "PartialUrl": "FinancePortal"
        },
        {
            "AppID": 2785,
            "Name": "Finance - Request",
            "Description": "App Owner: Sheldon Perry",
            "Type": "Ticketing",
            "AppClass": "TDTickets",
            "ExternalUrl": null,
            "Purpose": "Finance",
            "Active": true,
            "PartialUrl": null
        },
        {
            "AppID": 3077,
            "Name": "Financial Aid",
            "Description": "",
            "Type": "Client Portal",
            "AppClass": "TDClient",
            "ExternalUrl": null,
            "Purpose": null,
            "Active": true,
            "PartialUrl": "FinancialAidPortal"
        },
        {
            "AppID": 3075,
            "Name": "Financial Aid - Request",
            "Description": "App Owner: Tim Shulba",
            "Type": "Ticketing",
            "AppClass": "TDTickets",
            "ExternalUrl": null,
            "Purpose": "Finance",
            "Active": true,
            "PartialUrl": null
        },
        {
            "AppID": 2542,
            "Name": "GLOBAL - Portal",
            "Description": "",
            "Type": "Client Portal",
            "AppClass": "TDClient",
            "ExternalUrl": null,
            "Purpose": null,
            "Active": true,
            "PartialUrl": "TWUGLOBAL"
        },
        {
            "AppID": 2391,
            "Name": "GLOBAL - Request",
            "Description": "App Ownesr: Gavin Nixon (Langley Campus); Grace Cheng (Richmond Campus)",
            "Type": "Ticketing",
            "AppClass": "TDTickets",
            "ExternalUrl": null,
            "Purpose": "Academic Affairs",
            "Active": true,
            "PartialUrl": null
        },
        {
            "AppID": 2636,
            "Name": "Housing - Portal",
            "Description": "",
            "Type": "Client Portal",
            "AppClass": "TDClient",
            "ExternalUrl": null,
            "Purpose": null,
            "Active": true,
            "PartialUrl": "HousingPortal"
        },
        {
            "AppID": 2637,
            "Name": "Housing - Request",
            "Description": "App owner: Deanne Mackie",
            "Type": "Ticketing",
            "AppClass": "TDTickets",
            "ExternalUrl": null,
            "Purpose": "Residential Life",
            "Active": true,
            "PartialUrl": null
        },
        {
            "AppID": 2546,
            "Name": "HR - Portal",
            "Description": "",
            "Type": "Client Portal",
            "AppClass": "TDClient",
            "ExternalUrl": null,
            "Purpose": null,
            "Active": true,
            "PartialUrl": "HRPortal"
        },
        {
            "AppID": 1063,
            "Name": "HR - Request",
            "Description": "App Owner: Adriene Alford",
            "Type": "Ticketing",
            "AppClass": "TDTickets",
            "ExternalUrl": null,
            "Purpose": "HR/Payroll",
            "Active": true,
            "PartialUrl": null
        },
        {
            "AppID": 810,
            "Name": "IT - Assets",
            "Description": "The Assets/CIs application allows users to easily add and categorize assets, configuration items, vendors, contracts, and locations, allowing an organization to track and maintain hardware and software assets, in addition to other configuration items, cost-effectively.",
            "Type": "Asset/CI",
            "AppClass": "TDAssets",
            "ExternalUrl": null,
            "Purpose": null,
            "Active": true,
            "PartialUrl": null
        },
        {
            "AppID": 2550,
            "Name": "IT - Portal",
            "Description": "",
            "Type": "Client Portal",
            "AppClass": "TDClient",
            "ExternalUrl": null,
            "Purpose": null,
            "Active": true,
            "PartialUrl": "TWITPortal"
        },
        {
            "AppID": 366,
            "Name": "IT - Request",
            "Description": "This is a comprehensive ITSM application that allows users to track and manage requests for help desk support or just tracking small pieces of work.\r\nApp Owner: Priscilla Schwartz",
            "Type": "Ticketing",
            "AppClass": "TDTickets",
            "ExternalUrl": null,
            "Purpose": "IT Services",
            "Active": true,
            "PartialUrl": null
        },
        {
            "AppID": 10,
            "Name": "Knowledge Base",
            "Description": "The Knowledge Base application serves as Knowledge Management for common resolutions to support items. Articles in the Knowledge Base can be browsed when viewing a ticket or added to the Knowledge Base when updating a ticket.",
            "Type": "Standard",
            "AppClass": "TDKnowledgeBase",
            "ExternalUrl": null,
            "Purpose": null,
            "Active": false,
            "PartialUrl": null
        },
        {
            "AppID": 3171,
            "Name": "Learning Commons",
            "Description": "",
            "Type": "Ticketing",
            "AppClass": "TDTickets",
            "ExternalUrl": null,
            "Purpose": "Student Affairs",
            "Active": true,
            "PartialUrl": null
        },
        {
            "AppID": 2669,
            "Name": "Library - Portal",
            "Description": "",
            "Type": "Client Portal",
            "AppClass": "TDClient",
            "ExternalUrl": null,
            "Purpose": null,
            "Active": true,
            "PartialUrl": "LibraryPortal"
        },
        {
            "AppID": 2670,
            "Name": "Library - Request",
            "Description": "App Owner: Shawn Brower",
            "Type": "Ticketing",
            "AppClass": "TDTickets",
            "ExternalUrl": null,
            "Purpose": "Library",
            "Active": true,
            "PartialUrl": null
        },
        {
            "AppID": 1521,
            "Name": "Marketing - Assets",
            "Description": "",
            "Type": "Asset/CI",
            "AppClass": "TDAssets",
            "ExternalUrl": null,
            "Purpose": null,
            "Active": true,
            "PartialUrl": null
        },
        {
            "AppID": 2547,
            "Name": "Marketing - Portal",
            "Description": "",
            "Type": "Client Portal",
            "AppClass": "TDClient",
            "ExternalUrl": null,
            "Purpose": null,
            "Active": true,
            "PartialUrl": "MarketingPortal"
        },
        {
            "AppID": 533,
            "Name": "Marketing - Request",
            "Description": "This ticketing application will be used by the Marketing Team to track requests made.\r\nApp Owner: Justin Chase",
            "Type": "Ticketing",
            "AppClass": "TDTickets",
            "ExternalUrl": null,
            "Purpose": "Marketing",
            "Active": true,
            "PartialUrl": null
        },
        {
            "AppID": 1,
            "Name": "My Work",
            "Description": "The My Work application gives TDNext users a unified view of their assigned tickets, tasks, approvals and other work items.",
            "Type": "Standard",
            "AppClass": "MyWork",
            "ExternalUrl": null,
            "Purpose": null,
            "Active": true,
            "PartialUrl": null
        },
        {
            "AppID": 11,
            "Name": "News",
            "Description": "The News application allows users to consume RSS feeds within TDNext.",
            "Type": "Standard",
            "AppClass": "TDNews",
            "ExternalUrl": null,
            "Purpose": null,
            "Active": true,
            "PartialUrl": null
        },
        {
            "AppID": 3021,
            "Name": "Outfitters - Portal",
            "Description": "",
            "Type": "Client Portal",
            "AppClass": "TDClient",
            "ExternalUrl": null,
            "Purpose": null,
            "Active": true,
            "PartialUrl": "OutfittersPortal"
        },
        {
            "AppID": 3020,
            "Name": "Outfitters - Request",
            "Description": "App Owner: Susi Maquez",
            "Type": "Ticketing",
            "AppClass": "TDTickets",
            "ExternalUrl": null,
            "Purpose": "Procurement",
            "Active": true,
            "PartialUrl": null
        },
        {
            "AppID": 2980,
            "Name": "Payroll - Portal",
            "Description": "",
            "Type": "Client Portal",
            "AppClass": "TDClient",
            "ExternalUrl": null,
            "Purpose": null,
            "Active": true,
            "PartialUrl": "PayrollPortal"
        },
        {
            "AppID": 2979,
            "Name": "Payroll - Request",
            "Description": "App Owner: Rodney Chin",
            "Type": "Ticketing",
            "AppClass": "TDTickets",
            "ExternalUrl": null,
            "Purpose": "Finance",
            "Active": true,
            "PartialUrl": null
        },
        {
            "AppID": 13,
            "Name": "People",
            "Description": "The People application allows users to search, create, and modify People and Account/Department records in TDNext.",
            "Type": "Standard",
            "AppClass": "TDPeople",
            "ExternalUrl": null,
            "Purpose": null,
            "Active": true,
            "PartialUrl": null
        },
        {
            "AppID": 15,
            "Name": "Portfolio Planning",
            "Description": "Allows users to view requested projects, approve workflow steps and analyze project requests alongside other requests and existing projects to allow for planning and what-if scenarios.",
            "Type": "Standard",
            "AppClass": "TDPP",
            "ExternalUrl": null,
            "Purpose": null,
            "Active": true,
            "PartialUrl": null
        },
        {
            "AppID": 14,
            "Name": "Portfolios",
            "Description": "The Portfolios application allows users to manage and view project portfolios within the Analysis application.",
            "Type": "Standard",
            "AppClass": "TDPortfolios",
            "ExternalUrl": null,
            "Purpose": null,
            "Active": true,
            "PartialUrl": null
        },
        {
            "AppID": 16,
            "Name": "Project Requests",
            "Description": "Allows users to submit project requests into the Portfolio Planning System from the Service Catalog in the Requests application.",
            "Type": "Standard",
            "AppClass": "TDProjectRequest",
            "ExternalUrl": null,
            "Purpose": null,
            "Active": false,
            "PartialUrl": null
        },
        {
            "AppID": 22,
            "Name": "Project Templates",
            "Description": "The Project Templates application allows users to create templates for projects and workspaces, which can include briefcase files, contacts, links, project plans and issues, which can then be applied to new projects and workspaces.",
            "Type": "Standard",
            "AppClass": "TDTemplate",
            "ExternalUrl": null,
            "Purpose": null,
            "Active": true,
            "PartialUrl": null
        },
        {
            "AppID": 17,
            "Name": "Projects",
            "Description": "The Projects application allows users to work with projects within TDNext.",
            "Type": "Standard",
            "AppClass": "TDProjects",
            "ExternalUrl": null,
            "Purpose": null,
            "Active": true,
            "PartialUrl": null
        },
        {
            "AppID": 2252,
            "Name": "Public Health - TWU",
            "Description": "App Owner: Taryne Lepp",
            "Type": "Ticketing",
            "AppClass": "TDTickets",
            "ExternalUrl": null,
            "Purpose": "Public Safety",
            "Active": true,
            "PartialUrl": null
        },
        {
            "AppID": 18,
            "Name": "Questions",
            "Description": "Questions enable team members to share knowledge with other Questions users.",
            "Type": "Standard",
            "AppClass": "TDQuestions",
            "ExternalUrl": null,
            "Purpose": null,
            "Active": false,
            "PartialUrl": null
        },
        {
            "AppID": 2548,
            "Name": "Registrar - Portal",
            "Description": "",
            "Type": "Client Portal",
            "AppClass": "TDClient",
            "ExternalUrl": null,
            "Purpose": null,
            "Active": true,
            "PartialUrl": "OTRPortal"
        },
        {
            "AppID": 1220,
            "Name": "Registrar - Request",
            "Description": "App Owner: Sara Mackie",
            "Type": "Ticketing",
            "AppClass": "TDTickets",
            "ExternalUrl": null,
            "Purpose": "Accreditation",
            "Active": true,
            "PartialUrl": null
        },
        {
            "AppID": 20,
            "Name": "Resource Management",
            "Description": "Allows users to view and manage resource allocation and resource requests.",
            "Type": "Standard",
            "AppClass": "TDResourceManagement",
            "ExternalUrl": null,
            "Purpose": null,
            "Active": true,
            "PartialUrl": null
        },
        {
            "AppID": 1414,
            "Name": "Security",
            "Description": "App Owner: Derek Adams",
            "Type": "Ticketing",
            "AppClass": "TDTickets",
            "ExternalUrl": null,
            "Purpose": "Security",
            "Active": true,
            "PartialUrl": null
        },
        {
            "AppID": 19,
            "Name": "Services",
            "Description": "The Services/Requests application allows individuals to browse the contents of the Service Catalog, which is a database of customer-facing services and associated supporting services.  The Service Catalog allows you to efficiently distribute information about the services your organization provides and provides the foundation through which ticket and project requests may be created.",
            "Type": "Standard",
            "AppClass": "TDRequests",
            "ExternalUrl": null,
            "Purpose": null,
            "Active": false,
            "PartialUrl": null
        },
        {
            "AppID": 1334,
            "Name": "Student Life",
            "Description": "App Owner: Patti White",
            "Type": "Ticketing",
            "AppClass": "TDTickets",
            "ExternalUrl": null,
            "Purpose": "Residential Life",
            "Active": true,
            "PartialUrl": null
        },
        {
            "AppID": 21,
            "Name": "Surveys",
            "Description": "The Surveys application can automate satisfaction surveys to requestors of work, enabling organizations to collect and analyze survey responses.",
            "Type": "Standard",
            "AppClass": "TDSurveys",
            "ExternalUrl": null,
            "Purpose": null,
            "Active": false,
            "PartialUrl": null
        },
        {
            "AppID": 12,
            "Name": "TDNext",
            "Description": "TDNext is the foundational application upon which most other TeamDynamix applications run, allowing executives, service managers, technicians, project managers, and project team members to work more effectively and report on real data.",
            "Type": "Standard",
            "AppClass": "TDNext",
            "ExternalUrl": null,
            "Purpose": null,
            "Active": true,
            "PartialUrl": null
        },
        {
            "AppID": 23,
            "Name": "Ticket Requests",
            "Description": "Allows users to make ticket requests from the Service Catalog in the Requests application.",
            "Type": "Standard",
            "AppClass": "TDTicketRequests",
            "ExternalUrl": null,
            "Purpose": null,
            "Active": false,
            "PartialUrl": null
        },
        {
            "AppID": 25,
            "Name": "Time & Expenses",
            "Description": "The Time & Expenses application allows users to track and approve time and expenses.",
            "Type": "Standard",
            "AppClass": "TDTimeExpense",
            "ExternalUrl": null,
            "Purpose": null,
            "Active": true,
            "PartialUrl": null
        },
        {
            "AppID": 1904,
            "Name": "TWU Client Portal",
            "Description": "The Client Portal is an application that allows clients to access self-service offerings and track requests.\r\nApp Owner: Dan Burnett",
            "Type": "Client Portal",
            "AppClass": "TDClient",
            "ExternalUrl": null,
            "Purpose": null,
            "Active": true,
            "PartialUrl": "Portal"
        },
        {
            "AppID": 478,
            "Name": "TWU Online - Request",
            "Description": "This is the ticketing application for TWU Online.\r\nApp Owner: Priscilla Schwartz",
            "Type": "Ticketing",
            "AppClass": "TDTickets",
            "ExternalUrl": null,
            "Purpose": "Other",
            "Active": true,
            "PartialUrl": null
        },
        {
            "AppID": 3049,
            "Name": "TWU Service Hub",
            "Description": "App Owner: Priscilla Schwartz",
            "Type": "Ticketing",
            "AppClass": "TDTickets",
            "ExternalUrl": null,
            "Purpose": "Other",
            "Active": true,
            "PartialUrl": null
        },
        {
            "AppID": 3227,
            "Name": "Workspaces",
            "Description": "The Workspaces application allows users to work with workspaces within TDNext. ",
            "Type": "Standard",
            "AppClass": "TDWorkspaces",
            "ExternalUrl": null,
            "Purpose": null,
            "Active": true,
            "PartialUrl": null
        },
        {
            "AppID": 26,
            "Name": "Workspaces (Legacy)",
            "Description": "The Workspaces application allows users to create and manage workspaces for simplicity in sharing and collaboration.",
            "Type": "Standard",
            "AppClass": "TDWorkspaces-Legacy",
            "ExternalUrl": null,
            "Purpose": null,
            "Active": false,
            "PartialUrl": null
        },
        {
            "AppID": 2168,
            "Name": "z Test Portal",
            "Description": "created by Dan Burnett",
            "Type": "Client Portal",
            "AppClass": "TDClient",
            "ExternalUrl": null,
            "Purpose": null,
            "Active": true,
            "PartialUrl": "PortalTest"
        },
        {
            "AppID": 2956,
            "Name": "z Test Tickets",
            "Description": "",
            "Type": "Ticketing",
            "AppClass": "TDTickets",
            "ExternalUrl": null,
            "Purpose": "Other",
            "Active": true,
            "PartialUrl": null
        }
    ],
    0.546875
]