﻿Application,Category,Template,Comment
OTR,1. Initial Greetings and Closing,Thank You for Contacting,Assign to Service Hub - Registrar: Greeting and closure statements. Add your own message in between.
OTR,1. Initial Greetings and Closing,Transfer Response,Assign to Service Hub - Registrar: We have received request and are working on it.
OTR,2. Accounts & Payments,Contact Information Update,Assign to Service Hub - Registrar: Update Contact Info - Student Profile Page
OTR,2. Accounts & Payments,Fees Explanation - Student and Tech/Infrastructure/Activity,Assign to Service Hub - Registrar: Explanation of Student Fees on statement.
OTR,2. Accounts & Payments,Hold Explanation - MP Do Not Publicize,Assign to Service Hub - Registrar: Explains the hold to students
OTR,2. Accounts & Payments,Hold Explanation - ROI,Assign to Service Hub - Registrar: Explains the Release of Information Hold on the student's account.
OTR,2. Accounts & Payments,Reset PASS Acount,Assign to Service Hub - Registrar: Resetting student account's password.
OTR,2. Accounts & Payments,Statement - how to view,Assign to Service Hub - Registrar: Steps to view your student statement
OTR,2. Accounts & Payments,Tax Forms,Assign to Service Hub - Registrar: Student tax forms information (T2202)
OTR,3. Graduation,Forwarding request to Graduation Department,Assign to Anna-Marie Ryan: Moving the request to the Graduation Department to answer.
OTR,3. Graduation,Grad Checklist Submission - where to submit,Assign to Service Hub - Registrar: Where to submit the Grad Checklist as part of the Grad Application.
OTR,3. Graduation,Grad Checklist Submission (Forwarding),Assign to Graduation Group: Grad checklist received through the helpdesk - confirmation to student.
OTR,3. Graduation,Grad Diplomas - Spring 2022,Assign to Lynn Zhao: Diploma delivery details if students are asking when they will receive diploma
OTR,3. Graduation,Grad Exception Form,Assign to Service Hub - Registrar: Grad Exception Form requested
OTR,3. Graduation,How to apply for graduation,Assign to Service Hub - Registrar: Student is asking how to apply for graduation - refer them to our website instructions.
OTR,5. Registration,Course Registration - Search,Assign to Service Hub - Registrar: Searching Course Registration page for a course - tips
OTR,5. Registration,First day of Registration - unable to register,Assign to Service Hub - Registrar: Unable to register for classes on first day that Fall/Spring registration opens up.
OTR,6. Student Records & Letters,R on Transcript,Assign to Service Hub - Registrar: There is an R on the transcript but the student hasn't taken the course before.
OTR,6. Student Records & Letters,Enrollment Letter - FIRST LETTER FREE,Assign to Clare Keranan: Enrollment Letter - first letter ordered is free for new students
OTR,6. Student Records & Letters,Enrollment Letter - FORWARDING FORM TO CLARE,Assign to Clare Keranan: Student has submitted completed Verification Form. Forwarding to Records to process the letter.
OTR,6. Student Records & Letters,Enrollment Letter - needs Verification Form,Assign to Clare Keranan: Student requests Enrollment Letter. Has not attached a completed form.
OTR,6. Student Records & Letters,Enrollment Letter - Privacy Policy,Assign to Service Hub - Registrar: Parent or third party requests a Confirmation of Enrolment Letter for the student. Request must come from student.
OTR,6. Student Records & Letters,Enrollment Letter - Student has 3rd PARTY FORM TO BE COMPLETED,Assign to Clare Keranan: Student has a form that needs to be completed to confirm enrollment. They still need to fill out the Verification Request Form in order for Records to fill out the form for them. The $10 letter fee still applies.
OTR,6. Student Records & Letters,Enrollment Letter with Transcript Request,Assign to Clare Keranan: Student requesting both an enrollment letter and official transcript
OTR,6. Student Records & Letters,Graduation Verifcation Request - FORM ATTACHED - forward to Clare,Assign to Clare Keranan: Verification Form received. Need to receive payment for the letter.
OTR,6. Student Records & Letters,Graduation Verifcation Request - NEEDS FORM,Assign to Clare Keranan: Graduation Verification Letter - no form attached yet.
OTR,6. Student Records & Letters,Name Change,Assign to Service Hub - Registrar: Student/Alumni requests to have legal name changed.
OTR,6. Student Records & Letters,Official Transcript Ordering Instructions,Assign to Service Hub - Registrar: Instructions for ordering transcripts online.
IT,A Service Hub Initial Greeting,Thank You for Contacting,Assign to  Service Hub - IT: Use this Template when you know the answer and none of the Templates work
IT,A Service Hub Initial Greeting,Reset PASS Account,Assign to  Service Hub - IT: Use this template when you have verified a student's account and have requested a password for them
IT,A Service Hub Initial Greeting,Need to Verify ID,Assign to  Service Hub - IT: Use this template when you need to verify a students identity for a password reset
IT,A Service Hub Initial Greeting,Transfer Response,Assign to  Service Hub - IT: Use this template before you assign the ticket to IT Staff
IT,A Service Hub Initial Greeting,Official Transcript Ordering Instructions,Assign to  Service Hub - IT: Instructions on how to order a Transcript Online
IT,AA Service Desk Analyst Responses,Authentication Access Change (Email Access Blocked),Assign to  Service Hub - IT: Use this template when requestor is saying that they have received an e-mail from IT saying E-mail Access Blocked
IT,AA Service Desk Analyst Responses,Compromised O365 Student account,Assign to  Service Hub - IT: Use in response to auto generated O365 tickets for compromised account. Find alternative email for notification.
IT,AA Service Desk Analyst Responses,Moodle Courses Not Showing,"Assign to  Service Hub - IT: Use this template when student is saying they cal login to Moodle, but no courses are showing even though they are registered."
IT,AA Service Desk Analyst Responses,Activate TWU Account Link Expired,Assign to  Service Hub - IT: Use this template when student are saying they need to activate their TWU Account/their activation link is expired
IT,AA Service Desk Analyst Responses,Streams Videos in Moodle,Assign to  Service Hub - IT: Instructions for Students when the Moodle videos aren't working/loading.
IT,AA Service Desk Analyst Responses,Zoom,Assign to  Service Hub - IT: Instructions on how to access the TWU Zoom Account
HUB,Initial Greeting,Transfer Response,Assign to Move to Application -> Whoever the Ticket Applies To: We have received request and are working on it.
HUB,IT Templates,General Account Info,Assign to  Service Hub - IT: General Information about TWU Accounts. Generally used when with new students who need information about their Accounts
HUB,IT Templates,Compromised O365 Student account,Assign to  Service Hub - IT: Information when tickets come in saying Student accounts have been Compromised
HUB,Initial Greeting,Reset PASS Account,Assign to  Service Hub - IT: Used after Student has verified a student's account and have requested a password for them
HUB,IT Templates,Compromised TWU Employee Account,Assign to  Service Hub - IT: Information when a ticket comes in saying an Employee account has been compromised
HUB,IT Templates,Zoom,Assign to  Service Hub - IT: Information on how people can get access to their TWU Zoom Accounts
HUB,IT Templates,Windows Expiration (TWU-Issued Computer),Assign to  Service Hub - IT: Information for Employees who are putting in tickets that their computers 
HUB,Initial Greeting,Need to Verify ID,Assign to  Service Hub - IT: Use this template when you need to verify a students identity for a password reset
HUB,IT Templates,SurveyMonkey,Assign to  Service Hub - IT: Information on how to create a TWU Survey Monkey account for those who request it.
HUB,IT Templates,Apply.twu.ca Login,Assign to  Service Hub - IT: Information on how Students can login to the Application portal.
HUB,IT Templates,Moodle Courses Not Showing,"Assign to  Service Hub - IT: Use this template when student is saying they cal login to Moodle, but no courses are showing even though they are registered."
HUB,Initial Greeting,Move to Graduation Department,Assign to Move to Application -> Registrar -> Anna-Marie Ryan: Moving the request to the Graduation Department to answer.
HUB,Initial Greeting,Official Transcript Ordering Instructions,Assign to Move to Application -> Registrar -> Service Hub - Registrar: Instructions for ordering transcripts online.
HUB,IT Templates,Streams Videos in Moodle,Assign to  Service Hub - IT: Instructions for Students when the Moodle videos aren't working/loading.
HUB,SW Housing Templates,Meal Plan Change (After Add/Drop),Assign to Move to Application -> Housing -> Tiffany Loewen: Use when Students put a Meal Plan change AFTER the Add/Dop Date
HUB,SW Housing Templates,Housing Cancellation,Assign to Move to Application -> Housing -> Tiffany Loewen: Used when students want to cancel their Housing.
HUB,SW Housing Templates,How to Request an ID Card,Assign to Move to Application -> Housing -> Housing Assistants: Instructions when Students are asking how to apply for an ID card
HUB,SW Housing Templates,ID Card Request Received,Assign to Move to Application -> Housing -> Housing Assistants: Used when students have requested a ID Card
HUB,SW Housing Templates,Expired ID Card,Assign to Move to Application -> Housing -> Housing Assistants: Instructions on how to renew a ID Card
HUB,SW Housing Templates,ID Card (Attach Headshot),Assign to Move to Application -> Housing -> Housing Assistants: Used when students can't upload their ID Card
HUB,SW Housing Templates,Meal Plan Change (Before Add/Drop),Assign to Move to Application -> Housing -> Tiffany Loewen: Use when Students put a Meal Plan change AFTER the Add/Dop Date
HUB,Initial Greeting,Registration Questions and Transfer,Assign to Move to Application -> Registrar -> Service Hub - Registrar: Used when students are having issues registering for the  2022/2023 school year.
HUB,SL Templates,General Medical Information,Assign to Service Hub (Group): General information about MSP and GuardMe
HUB,SL Templates,Wellness Referral,Assign to Service Hub (Group): Response when Health Insurance ticket needs to be escalated to Wellness Center.
Housing,A Service Hub Housing,Application - Fall housing 2022,Assign to Tiffany: Information on how to apply for Fall Housing
Housing,A Service Hub Housing,Thank You for Contacting,Assign to Tiffany: Greeting and closure statements. Add your own message in between.
Housing,A Service Hub Housing,Transfer Response,Assign to Tiffany: We have received request and are working on it.
Housing,A Service Hub Housing,Meal Plan Change Request (After Add/Drop),Assign to Tiffany: Information for students who request a Meal Plan Change AFTER the Add/Drop
Housing,A Service Hub Housing,DO NOT USE - ID Card Request Instructions,Assign to Housing Assitants: Information on how to Request an ID Card
Housing,A Service Hub Housing,DO NOT USE - ID Card Request Received,Assign to Housing Assitants: Instructions when Students are asking how to apply for an ID card
Housing,A Service Hub Housing,ID Card Request - Expired Card,Assign to Housing Assitants: Instructions on how to renew a ID Card
Housing,A Service Hub Housing,DO NOT USE ID card request - location for pickup (Richmond or Langley),Assign to Housing Assitants: Asking Students if they want their Card picked up in Langley vs. Richmond
Housing,A Service Hub Housing,Summer Housing - Key and ID card pick up info (May),Assign to Tiffany: Information on where to pick up the keys/ID Cards for Summer Housing
Housing,A Service Hub Housing,Housing Application (Grad) students - Room and Board 2022,Assign to Tiffany: Information for graduate student room and boarding
Housing,A Service Hub Housing,Apartments for summer are full,Assign to Tiffany: Informing the Students that Summer Housing is Closed
Housing,A Service Hub Housing,ID Card Request (UG) - Pick Up In September,Assign to Housing Assitants: Use to tell students that Cards will only be printed in Sept.
Housing,A Service Hub Housing,Transfer Response (Longer Wait Time),"Assign to Tiffany: We have received request and are working on it, but it will take longer than usual"
Housing,A Service Hub Housing,Summer housing departure details - August,Assign to Tiffany: Information for those leaving Summer Housing
