{
    "ID": 92823643,
    "CreatedUid": "16bcf996-040e-e711-80ce-000d3a13db68",
    "CreatedRefID": 2783837,
    "CreatedFullName": "Sharaya Holder",
    "CreatedFirstName": "Sharaya",
    "CreatedLastName": "Holder",
    "CreatedByPicPath": null,
    "CreatedDate": "2021-04-29T04:20:05.51Z",
    "LastUpdatedDate": "2021-04-29T04:20:05.51Z",
    "ProjectID": 0,
    "ProjectName": null,
    "PlanID": 0,
    "PlanName": null,
    "ItemType": 9,
    "ItemID": 17677134,
    "ItemTitle": "Action Required: Renew MBA 000 A - FA 2020 - MBA Leave Of Absence by Saturday, May 29, 2021",
    "ReferenceID": null,
    "Body": "Changed Status from \"<b>New</b>\" to \"<b>Cancelled</b>\".<br/><br/>Microsoft Ticket for unused group. Ticket cancelled.",
    "UpdateType": 2,
    "NotifiedList": null,
    "IsPrivate": true,
    "IsParent": false,
    "Replies": [],
    "RepliesCount": 0,
    "Likes": [],
    "ILike": false,
    "LikesCount": 0,
    "Participants": [
        {
            "FullName": "Sharaya Holder",
            "Email": "sharaya.holder@twu.ca"
        }
    ],
    "BreadcrumbsHtml": null,
    "HasAttachment": false,
    "Uri": "api/feed/92823643"
}