{
    "ID": 19982657,
    "ParentID": 0,
    "ParentTitle": "",
    "ParentClass": 0,
    "TypeID": 39088,
    "TypeName": "General Request",
    "TypeCategoryID": 6753,
    "TypeCategoryName": "IT - Service Catalog 3.0",
    "Classification": 46,
    "ClassificationName": "Service Request",
    "FormID": 46715,
    "FormName": "Internal - Request for Service (regular assistance) ",
    "Title": "Emily Needs Access to Financial Reporting DB",
    "Description": "From Stuart on behalf of Emily...\r\n\r\nWith Emily joining the Institutional Research team, she would benefit from access to the Change Data Capture data for some of the reports she'll be writing. She'll need similar access to what Christian has to write reports from the data. She is currently looking for historical Student_Crs_Hist data...\r\n\r\nJus, I'm assigning to you first, but you may need Daniel or someone else to setup the permissions. Would you be able to give her a quick walkthrough of the database once she has access.\r\n\r\nStuart",
    "IsRichHtml": false,
    "Uri": "api/366/tickets/19982657",
    "AccountID": 37977,
    "AccountName": "Office of the Registrar",
    "SourceID": 1096,
    "SourceName": "Internal",
    "StatusID": 18302,
    "StatusName": "Assigned",
    "StatusClass": 2,
    "ImpactID": 2967,
    "ImpactName": "Low",
    "UrgencyID": 2971,
    "UrgencyName": "Low",
    "PriorityID": 2974,
    "PriorityName": "Low",
    "PriorityOrder": 1.0,
    "SlaID": 507,
    "SlaName": "General Ticket Response",
    "IsSlaViolated": false,
    "IsSlaRespondByViolated": false,
    "IsSlaResolveByViolated": false,
    "RespondByDate": "2022-03-24T19:30:00Z",
    "ResolveByDate": "0001-01-01T05:00:00Z",
    "SlaBeginDate": "2022-03-23T23:51:22.577Z",
    "IsOnHold": false,
    "PlacedOnHoldDate": "0001-01-01T05:00:00Z",
    "GoesOffHoldDate": "0001-01-01T05:00:00Z",
    "CreatedDate": "2022-03-23T23:51:22.577Z",
    "CreatedUid": "dfd54135-d62c-e611-80cc-000d3a13db68",
    "CreatedFullName": "Stuart Schellenberg",
    "CreatedEmail": "Stuart.Schellenberg@twu.ca",
    "ModifiedDate": "2022-04-05T22:27:20.32Z",
    "ModifiedUid": "4f5d5336-1837-e611-80cc-000d3a13db68",
    "ModifiedFullName": "Juswaldy Jusman",
    "RequestorName": "Emily Greenhalgh",
    "RequestorFirstName": "Emily",
    "RequestorLastName": "Greenhalgh",
    "RequestorEmail": "emily.greenhalgh@twu.ca",
    "RequestorPhone": "",
    "RequestorUid": "ed8d1daa-3156-e611-80cc-000d3a13db68",
    "ActualMinutes": 0,
    "EstimatedMinutes": 0,
    "DaysOld": 230,
    "StartDate": null,
    "EndDate": null,
    "ResponsibleUid": "4f5d5336-1837-e611-80cc-000d3a13db68",
    "ResponsibleFullName": "Juswaldy Jusman",
    "ResponsibleEmail": "Juswaldy.Jusman@twu.ca",
    "ResponsibleGroupID": 0,
    "ResponsibleGroupName": "",
    "RespondedDate": "2022-03-23T23:51:22.577Z",
    "RespondedUid": "dfd54135-d62c-e611-80cc-000d3a13db68",
    "RespondedFullName": "Stuart Schellenberg",
    "CompletedDate": "0001-01-01T05:00:00Z",
    "CompletedUid": null,
    "CompletedFullName": "",
    "ReviewerUid": null,
    "ReviewerFullName": "",
    "ReviewerEmail": "",
    "ReviewingGroupID": 0,
    "ReviewingGroupName": "",
    "TimeBudget": 0.0,
    "ExpensesBudget": 0.0,
    "TimeBudgetUsed": 0.0,
    "ExpensesBudgetUsed": 0.0,
    "IsConvertedToTask": false,
    "ConvertedToTaskDate": "0001-01-01T05:00:00Z",
    "ConvertedToTaskUid": null,
    "ConvertedToTaskFullName": "",
    "TaskProjectID": 0,
    "TaskProjectName": "",
    "TaskPlanID": 0,
    "TaskPlanName": "",
    "TaskID": 0,
    "TaskTitle": "",
    "TaskStartDate": "0001-01-01T05:00:00Z",
    "TaskEndDate": "0001-01-01T05:00:00Z",
    "TaskPercentComplete": 0,
    "LocationID": 0,
    "LocationName": "",
    "LocationRoomID": 0,
    "LocationRoomName": "",
    "RefCode": "",
    "ServiceID": 49215,
    "ServiceName": "I need IT Help!",
    "ServiceOfferingID": 0,
    "ServiceOfferingName": "None",
    "ServiceCategoryID": 17545,
    "ServiceCategoryName": "IT Service Catalog",
    "ArticleID": 0,
    "ArticleSubject": "",
    "ArticleStatus": 0,
    "ArticleCategoryPathNames": "",
    "ArticleAppID": 0,
    "ArticleShortcutID": null,
    "AppID": 366,
    "Attributes": [
        {
            "ID": 122586,
            "Name": "How we evaluate Priority",
            "Order": 0,
            "Description": "",
            "SectionID": 0,
            "SectionName": null,
            "FieldType": "textbox",
            "DataType": "String",
            "Choices": [],
            "IsRequired": false,
            "IsUpdatable": false,
            "Value": "https://trinitywestern.teamdynamix.com/TDClient/1904/Portal/KB/ArticleDet?ID=112121",
            "ValueText": "https://trinitywestern.teamdynamix.com/TDClient/1904/Portal/KB/ArticleDet?ID=112121",
            "ChoicesText": "",
            "AssociatedItemIDs": [
                0
            ]
        }
    ],
    "Attachments": [],
    "Tasks": [],
    "Notify": [
        {
            "ItemRole": "Responsible",
            "Name": "Juswaldy Jusman",
            "Initials": null,
            "Value": "Juswaldy.Jusman@twu.ca",
            "RefValue": 0,
            "ProfileImageFileName": null
        },
        {
            "ItemRole": "Requestor",
            "Name": "Emily Greenhalgh",
            "Initials": null,
            "Value": "emily.greenhalgh@twu.ca",
            "RefValue": 0,
            "ProfileImageFileName": null
        },
        {
            "ItemRole": "Creator",
            "Name": "Stuart Schellenberg",
            "Initials": null,
            "Value": "Stuart.Schellenberg@twu.ca",
            "RefValue": 0,
            "ProfileImageFileName": null
        }
    ],
    "WorkflowID": 0,
    "WorkflowConfigurationID": 0,
    "WorkflowName": ""
}