dbobject|CollectBalancesToTables|viewRename|awmRevisions|dev|v3|unposted
FinancialReporting.sln|1|0|0|0|0|0
FinancialReporting.sqlproj|0|1|0|0|0|0
FinancialReportingCollectBalances/FinancialReporting.conmgr|1|0|0|0|0|0
FinancialReportingCollectBalances/FinancialReportingCollectBalances.database|1|0|0|0|0|0
FinancialReportingCollectBalances/FinancialReportingCollectBalances.dtproj|1|0|0|0|0|0
FinancialReportingCollectBalances/FRCollectBiographMasterBalances.dtsx|1|0|0|0|0|0
FinancialReportingCollectBalances/FRMasterCollectBalances.dtsx|1|0|0|0|0|0
FinancialReportingCollectBalances/JenzabarEX.conmgr|1|0|0|0|0|0
FinancialReportingCollectBalances/Project.params|1|0|0|0|0|0
INPUT/Tables/PERIODS_BY_DAY.sql|0|0|1|0|0|0
META/Scripts/GENERATE_DETAIL_TRIAL_BALANCE_CMP5_UNPOSTED.sql|0|0|0|0|0|1
META/Scripts/GENERATE_INTERSECTION_TRIAL_BALANCE_CMP4.sql|0|0|0|0|0|1
META/Scripts/GENERATE_INTERSECTION_TRIAL_BALANCE_CMP5.sql|0|0|0|0|0|1
META/Scripts/GENERATE_INTERSECTION_TRIAL_BALANCE_CMP5_UNPOSTED.sql|0|0|0|0|0|1
META/Scripts/GENERATE_LID_TRIAL_BALANCE_CMP4.sql|0|0|0|0|0|1
META/Scripts/Initialize_DATACUBE.sql|0|0|0|0|1|1
META/Scripts/Initialize_DATACUBE_OUTPUT.sql|0|0|0|0|0|1
META/Scripts/Initialize_DATACUBE_VENA_PARAMETER.sql|0|0|0|0|0|1
META/Scripts/Initialize_DIMENSION.sql|0|0|0|0|1|0
META/Scripts/Initialize_SOURCE_TABLE.sql|0|0|0|0|0|1
META/Tables/DATACUBE.sql|0|0|0|0|1|0
META/Tables/DIMENSION.sql|0|0|0|0|1|0
notebooks/Adding Component 5 Unposted Load.ipynb|0|0|0|0|0|1
notebooks/Adding DATAMODEL_ID to META tables.ipynb|0|0|0|0|1|0
notebooks/FinancialReporting Current State.ipynb|0|0|0|0|1|0
notebooks/FinancialReporting.md|0|0|0|0|1|0
notebooks/Freeing up some space on FinancialReporting.ipynb|0|0|0|0|0|1
notebooks/Investigating FR Errors.ipynb|0|0|0|0|1|0
notebooks/Investigating Source Load failure.ipynb|0|0|0|0|1|0
PRESENTATION/Tables/DETAIL_TRIAL_BALANCE_CMP5_UNPOSTED.sql|0|0|0|0|0|1
PRESENTATION/Tables/INTERSECTION_TRIAL_BALANCE_CMP5_UNPOSTED.sql|0|0|0|0|0|1
SOURCE_JZ/Tables/FIN_SRVS_FLAGS_TWU.sql|0|0|1|0|0|0
SOURCE_JZ/Tables/SECTION_MASTER.sql|0|0|1|0|0|0
SOURCE_JZ/Tables/STUDENT_CRS_HIST.sql|0|0|1|0|0|0
SOURCE_JZ/Tables/TRANS_HIST.sql|0|0|1|0|0|0
STAGING/Scripts/LOAD_VENA_DETAIL_StudentGroupFinancialAid.sql|0|1|0|0|0|0
STAGING/Scripts/LOAD_VENA_LID_StudentGroupCourseEnrolment.sql|0|1|0|0|0|0
STAGING/Scripts/PREPARE_STAGING_GL_TRIAL_BALANCE_BY_MONTH.sql|0|0|0|0|0|1
STAGING/Stored Procedures/LOAD_SOURCE_TABLES.sql|0|0|0|1|0|1
STAGING/Stored Procedures/MAKE_CREATE_TABLE_SQL.sql|0|0|0|0|0|1
STAGING/Tables/GL_TRIAL_BALANCE_BY_MONTH.sql|0|0|1|0|0|1
STAGING/Views/COURSE_HIERARCHIES.sql|0|1|1|0|0|0
STAGING/Views/COURSE_HIERARCHIES_V.sql|0|1|0|0|0|0
STAGING/Views/COURSE_SECTION_HIERARCHY_With_Periods.sql|0|1|0|0|0|0
STAGING/Views/COURSE_SECTION_HIERARCHY_With_Periods_V.sql|0|1|0|0|0|0
STAGING/Views/GL_HIERARCHY_WITH_ATTRIBUTES.sql|0|1|0|0|0|0
STAGING/Views/GL_HIERARCHY_WITH_ATTRIBUTES_V.sql|0|1|0|0|0|0
STAGING/Views/GL_TRANSACTIONS_FOR_VENA_LOAD.sql|0|1|0|0|0|0
STAGING/Views/GL_TRANSACTIONS_FOR_VENA_LOAD_V.sql|0|1|0|0|0|0
STAGING/Views/STUDENT_GRP_HIERARCHY_Code.sql|0|1|0|0|0|0
STAGING/Views/STUDENT_GRP_HIERARCHY_Code_V.sql|0|1|0|0|0|0
STAGING/Views/STUDENT_GRP_HIERARCHY_Code2.sql|0|1|0|0|0|0
STAGING/Views/STUDENT_GRP_HIERARCHY_Code2_V.sql|0|1|0|0|0|0
STAGING/Views/TRANS_HIST_STUDENT_CHARGES.sql|0|1|0|0|0|0
STAGING/Views/TRANS_HIST_STUDENT_CHARGES_V.sql|0|1|0|0|0|0
